{
  "swagger": "2.0",
  "info": {
    "version": "1.0.0",
    "title": "Getir RESTful API",
    "description": "A REST API built with Express and MongoDB. This API provides filter Record by date and count size.",
    "contact": {
      "email": "bbrkdmn35@gmail.com"
    }
  },
  "host": "burak-duman-getir.herokuapp.com",
  "basePath": "/api",
  "tags": [
    {
      "name": "Records",
      "description": "Getir Records Details"
    }
  ],
  "schemes": [
    "https",
    "http"
  ],
  "consumes": [
    "application/json"
  ],
  "produces": [
    "application/json"
  ],
  "paths": {
    "/records": {
      "post": {
        "tags": [
          "Records"
        ],
        "description": "Filter records",
        "produces": [
          "application/json"
        ],
        "parameters": [
          {
            "name": "vm",
            "required": [
              "startDate",
              "endDate",
              "minCount",
              "maxCount"
            ],
            "in": "body",
            "properties": {
              "startDate": {
                "$ref": "#/definitions/startDate"
              },
              "endDate": {
                "$ref": "#/definitions/endDate"
              },
              "minCount": {
                "$ref": "#/definitions/minCount"
              },
              "maxCount": {
                "$ref": "#/definitions/maxCount"
              }
            }
          }
        ],
        "responses": {
          "200": {
            "description": "Success"
          },
          "400": {
            "description": "An Exception Occured",
            "schema": {
              "$ref": "#/definitions/business_exception"
            }
          }
        }
      }
    }
  },
  "definitions": {
    "startDate": {
      "type": "date",
      "description": "Record created date beginning time filter",
      "example": "2016-01-26"
    },
    "endDate": {
      "type": "date",
      "description": "Record end date finish time filter. Must be greater than 'startDate'",
      "example": "2018-01-26"
    },
    "minCount": {
      "type": "number",
      "description": "Record totalCount min filter",
      "example": "2700"
    },
    "maxCount": {
      "type": "number",
      "description": "Record totalCount max filter. Must be greater than 'minCount'",
      "example": "3000"
    },
    "error": {
      "type": "object",
      "description": "Error data",
      "properties": {
        "msg": {
          "type": "string",
          "description": "Error message",
          "example": "Reccord not found"
        }
      }
    },
    "business_exception": {
      "type": "array",
      "description": "Error array",
      "items": {
        "$ref": "#/definitions/error"
      }
    }
  }
}